{
    "fluentMethods": true,
    "relationships": [
        {
            "relationshipType": "many-to-one",
            "relationshipName": "objectStatus",
            "otherEntityName": "objectStatus",
            "otherEntityField": "id"
        },
        {
            "relationshipName": "subsystemObject",
            "otherEntityName": "subsystemObject",
            "relationshipType": "many-to-one",
            "otherEntityField": "id"
        },
        {
            "relationshipName": "assignedUser",
            "otherEntityName": "user",
            "relationshipType": "many-to-one",
            "otherEntityField": "login",
            "ownerSide": true,
            "otherEntityRelationshipName": "issue"
        }
    ],
    "fields": [
        {
            "fieldName": "occuredAt",
            "fieldType": "ZonedDateTime"
        },
        {
            "fieldName": "resolvedAt",
            "fieldType": "ZonedDateTime"
        }
    ],
    "changelogDate": "20180405123017",
    "dto": "mapstruct",
    "service": "serviceImpl",
    "entityTableName": "issue",
    "jpaMetamodelFiltering": false,
    "pagination": "no"
}
